<svg xmlns="http://www.w3.org/2000/svg" viewBox="0 0 23 23">
    <g fill="#358EF5" fill-rule="nonzero">
        <path d="M23 .525C23 .21 22.787 0 22.468 0H.532C.213 0 0 .21 0 .525c0 .315.213.525.532.525h21.403v20.9H1.065v-6.092c0-.315-.213-.525-.533-.525-.319 0-.532.21-.532.525v6.617c0 .315.213.525.532.525h21.936c.106 0 .319-.105.426-.105.106 0 .106-.21.106-.42V.525z"/>
        <path d="M5.667 15c-.4 0-.667.267-.667.667v.666c0 .4.267.667.667.667h.666c.4 0 .667-.267.667-.667v-.666c0-.4-.267-.667-.667-.667h-.666zM10.74 3.117c-.217-.215-.543-.107-.76.108L5.53 8.709 2.923 5.806a.528.528 0 0 0-.76 0 .516.516 0 0 0 0 .753l3.149 3.226c.108.107.217.215.434.215.108 0 .326-.108.434-.215l4.777-6.023c.109-.215 0-.537-.217-.645zM11.522 17h5.956c.313 0 .522-.2.522-.5s-.209-.5-.522-.5h-5.956c-.313 0-.522.2-.522.5s.313.5.522.5zM11.522 9h5.956c.313 0 .522-.2.522-.5s-.209-.5-.522-.5h-5.956c-.313 0-.522.2-.522.5s.313.5.522.5z"/>
    </g>
</svg>
