<svg xmlns="http://www.w3.org/2000/svg" viewBox="0 0 23 23">
    <g fill="#2D2D2D" fill-rule="nonzero">
        <path d="M16.5 6H.6c-.2 0-.5.2-.5.5v15.9c0 .3.2.5.5.5h15.9c.3 0 .5-.2.5-.5V6.5c0-.3-.2-.5-.5-.5zM16 21.8H1.1V7H16v14.8z"/>
        <path d="M22.4.4H6.5c-.2 0-.5.2-.5.5v3.2c0 .3.2.5.5.5s.5-.2.5-.5V1.4h14.9v14.9h-2.6c-.3 0-.5.2-.5.5s.2.5.5.5h3.1c.3 0 .5-.2.5-.5V.9c0-.3-.2-.5-.5-.5zM4.2 13.6h.5c.3 0 .5-.2.5-.5v-.5c0-.3-.2-.5-.5-.5h-.5c-.3 0-.5.2-.5.5v.5c0 .3.3.5.5.5zM8.3 13.6h.5c.3 0 .5-.2.5-.5v-.5c0-.3-.2-.5-.5-.5h-.5c-.3 0-.5.2-.5.5v.5c0 .3.2.5.5.5zM12.4 13.6h.5c.3 0 .5-.2.5-.5v-.5c0-.3-.2-.5-.5-.5h-.5c-.3 0-.5.2-.5.5v.5c0 .3.2.5.5.5z"/>
    </g>
</svg>
