<?xml version="1.0" encoding="UTF-8" standalone="no"?>
<svg
   xmlns:dc="http://purl.org/dc/elements/1.1/"
   xmlns:cc="http://creativecommons.org/ns#"
   xmlns:rdf="http://www.w3.org/1999/02/22-rdf-syntax-ns#"
   xmlns:svg="http://www.w3.org/2000/svg"
   xmlns="http://www.w3.org/2000/svg"
   xmlns:sodipodi="http://sodipodi.sourceforge.net/DTD/sodipodi-0.dtd"
   xmlns:inkscape="http://www.inkscape.org/namespaces/inkscape"
   width="23px"
   height="23px"
   viewBox="0 0 23 23"
   version="1.1"
   id="svg4527"
   sodipodi:docname="narrow_placement.svg"
   inkscape:version="0.92.1 r15371">
  <metadata
     id="metadata4533">
    <rdf:RDF>
      <cc:Work
         rdf:about="">
        <dc:format>image/svg+xml</dc:format>
        <dc:type
           rdf:resource="http://purl.org/dc/dcmitype/StillImage" />
        <dc:title>Platform/device/position optimization</dc:title>
      </cc:Work>
    </rdf:RDF>
  </metadata>
  <defs
     id="defs4531" />
  <sodipodi:namedview
     pagecolor="#ffffff"
     bordercolor="#666666"
     borderopacity="1"
     objecttolerance="10"
     gridtolerance="10"
     guidetolerance="10"
     inkscape:pageopacity="0"
     inkscape:pageshadow="2"
     inkscape:window-width="1920"
     inkscape:window-height="1017"
     id="namedview4529"
     showgrid="false"
     inkscape:zoom="16"
     inkscape:cx="12.129388"
     inkscape:cy="19.632937"
     inkscape:window-x="-8"
     inkscape:window-y="-8"
     inkscape:window-maximized="1"
     inkscape:current-layer="Platform/device/position-optimization" />
  <!-- Generator: Sketch 52.4 (67378) - http://www.bohemiancoding.com/sketch -->
  <title
     id="title4512">Platform/device/position optimization</title>
  <desc
     id="desc4514">Created with Sketch.</desc>
  <g
     id="Platform/device/position-optimization"
     stroke="none"
     stroke-width="1"
     fill="none"
     fill-rule="evenodd">
    <g
       id="Group"
       transform="translate(2.000000, 5.000000)"
       fill-rule="nonzero"
       stroke="#3F8DF6">
      <g
         id="Rectangle-Copy-9">
        <path
           d="M9.68056045,0.654349205 C9.54498955,0.590363118 9.38786186,0.590583251 9.25247078,0.65494895 L2.11439286,4.04843228 C2.01053819,4.09780539 1.92687615,4.18146744 1.87750304,4.28532211 C1.75893971,4.53471607 1.8649989,4.83300439 2.11439286,4.95156772 L9.25247078,8.34505105 C9.38786186,8.40941675 9.54498955,8.40963688 9.68056045,8.34565079 L16.8705233,4.95216746 C16.9753859,4.90267493 17.0597864,4.81827436 17.109279,4.71341178 C17.227143,4.46368658 17.1202485,4.16569661 16.8705233,4.04783254 L9.68056045,0.654349205 Z"
           id="Rectangle-Copy-8" />
      </g>
      <g
         id="Path-6"
         transform="translate(2.000000, 7.000000)"
         stroke-linecap="round">
        <path
           d="M0,0 L7.02941176,3.74901961 C7.32352941,3.90588235 7.67647059,3.90588235 7.97058824,3.74901961 L15,0"
           id="Path-5" />
      </g>
      <g
         id="Path-6-Copy"
         transform="translate(2.000000, 9.000000)"
         stroke-linecap="round">
        <path
           d="M0,0 L7.02941176,3.74901961 C7.32352941,3.90588235 7.67647059,3.90588235 7.97058824,3.74901961 L15,0"
           id="path4522" />
      </g>
    </g>
    <path
       inkscape:connector-curvature="0"
       d="m 1.05,1.65 h 20.9 c 0.3,0 0.5,-0.2 0.5,-0.5 0,-0.3 -0.2,-0.5 -0.5,-0.5 H 1.05 c -0.3,0 -0.5,0.2 -0.5,0.5 0,0.3 0.2,0.5 0.5,0.5 z m 20.8,19.7 H 1.05 c -0.3,0 -0.5,0.2 -0.5,0.5 0,0.3 0.2,0.5 0.5,0.5 h 20.9 c 0.3,0 0.5,-0.2 0.5,-0.5 0,-0.3 -0.3,-0.5 -0.6,-0.5 z"
       id="path5080"
       style="fill:#358ef5;fill-opacity:1"
       sodipodi:nodetypes="ssssssssssssss" />
  </g>
</svg>
