<svg class="loader-icon" viewBox="25 25 50 50">
    <circle class="loader-bg" cx="50" cy="50" r="20" fill="none" stroke-width="1" stroke-miterlimit="10" width="88" height="88"/>
    <circle class="loader-path" cx="50" cy="50" r="20" fill="none" stroke-width="1" stroke-miterlimit="10" width="88" height="88"/>
</svg>
