<svg xmlns="http://www.w3.org/2000/svg" viewBox="0 0 23 23">
    <g fill="#2D2D2D" fill-rule="nonzero">
<path stroke="#ffffff" d="m7.39471,18.80538c0.28067,0 0.50687,-0.31194 0.50687,-0.69742l0,-10.07356c0,-0.38547 -0.22621,-0.69742 -0.50687,-0.69742c-0.28067,0 -0.50687,0.31194 -0.50687,0.69742l0,10.07133c0,0.38547 0.2283,0.69965 0.50687,0.69965zm8.21053,0c0.28067,0 0.50687,-0.31194 0.50687,-0.69742l0,-10.07356c0,-0.38547 -0.22621,-0.69742 -0.50687,-0.69742c-0.28067,0 -0.50687,0.31194 -0.50687,0.69742l0,10.07133c-0.00209,0.38547 0.22621,0.69965 0.50687,0.69965zm-4.10526,0.5459c0.28695,0 0.51735,-0.31194 0.51735,-0.69742l0,-11.16313c0,-0.38547 -0.23249,-0.69742 -0.51735,-0.69742c-0.28695,0 -0.51735,0.31194 -0.51735,0.69742l0,11.16313c0,0.38547 0.2304,0.69742 0.51735,0.69742zm9.23684,-15.82892l-4.61842,0l0,-1.0918c0,0 -0.01676,-1.6377 -1.53947,-1.6377l-6.15789,0c-1.55204,0 -1.53947,1.6377 -1.53947,1.6377l0,1.0918l-4.61842,0c-0.35816,0 -0.51316,0.26961 -0.51316,0.52808c0,0.25847 0.15499,0.56373 0.51316,0.56373l0.51316,0l0,16.37705c0,0 -0.00838,1.6377 1.53947,1.6377l14.36842,0c1.57089,0 1.53947,-1.6377 1.53947,-1.6377l0,-16.37705l0.51316,0c0.35816,0 0.51316,-0.30526 0.51316,-0.56373c0,-0.25847 -0.1529,-0.52808 -0.51316,-0.52808zm-11.80263,-1.6377l5.13158,0c1.12685,0 1.02632,1.0918 1.02632,1.0918l0,0.5459l-7.18421,0l0,-0.5459c0,0 -0.03351,-1.0918 1.02632,-1.0918zm10.26316,18.56066c0,0 0.00419,1.0918 -1.02632,1.0918l-13.34211,0c-1.05145,0 -1.02632,-1.0918 -1.02632,-1.0918l0,-15.83115l15.39474,0l0,15.83115z" id="svg_2" fill="#2d2d2d" stroke-width="0.3"/>
    </g>
</svg>
