{
  "tip_budget_allocation": {
    "en": "No more guesswork with budgets - boost your performance with automated budget recommendations. Leadza predicts to what level you can increase your budget to maintain good performance of a particular campaign and for which campaigns the budget should be decreased due to low performance. In case you budget is allocated not optimally Leadza suggests new proportions. As a result the expected number of future actions is maximized and the cost per action is minimized.",
    "ru": "Увеличивайте эффективность рекламы, автоматически управляя рекламными бюджетами. Система предсказывает, на какие рекламные кампании вы можете увеличивать свой рекламный бюджет, основываясь на их эффективности, а также на какую рекламу стоит сократить бюджеты ввиду ее плохих показателей. В результате распределения ожидаемое количество действий будет расти, а стоимость за действие падать. Эта настройка также помогает масштабировать рекламу за счет постоянного увеличения бюджета рекламных кампаний на основе их эффективности."
  },
  "tip_lal": {
    "en": "Easily scale with new, relevant audiences while investing minimal time in choosing who to target and how to set up a new campaign. Leadza analyzes all the audiences in your Ad Account, prioritize lower funnel traffic and suggests which lookalike audiences you will be testing first. Depending on your marketing budget the system may suggest where your next best area of qualified traffic is to test along with your “converted” audience. The system automatically runs a Test Campaign with the combination of your best ads/placements and new targeting options for the next 7 days. At the end of your 7-day test you will be able to review the results and decide whether you want to continue to run ad sets with most effective LAL audiences. As the result, you can effectively scale your campaigns.",
    "ru": "Масштабируйте рекламные кампании с минимальными затратами времени на выбор новых аудиторий для таргетинга и настройку рекламных кампаний. Система проанализирует все аудитории в вашем рекламном аккаунте, приоритезирует их по воронке продаж (с более \"горячих\" до \"холодных\" аудиторий) и предложит, какие похожие аудитории вам стоит протестировать в первую очередь. В заивисмости от вашего бюджета на рекламу, система может предложить от 2-х до 8-ми новых аудиторий на тест. Данная оптимизация позволяет запускать Тестовую рекламную кампанию на 7 дней, которая будет состоять из 2-х - 8-ми новых групп объявлений с самыми эффективными креативами/местами показа рекламы и новыми похожими аудиториями. По окончанию теста система сообщит вам о результатах и предложить оставить самые эффективные группы объявлений для дальнейшего масштабирования."
  },
  "tip_pab": {
    "en": "Build on your organic reach and get 30% to 70% better overall results with your content by automatically promoting most popular posts. Leadza monitors all your posts in terms of organic engagement. Unlike other content promotional tools, the system automatically finds new prospecting audiences to target, sets budget & schedule and automatically runs a new Post Engagement campaign with several new ad sets (combinations of most popular posts and audiences to target). The day after your campaign is created Leadza sends you daily optimization summary with new suggestions: to add new ad sets to this campaign when the new content is published on your Page, to increase/decrease/allocate budgets between ad sets, to optimize age/gender parameters and interests of your target audience. As the result, you have a new evergreen campaign (as if you had a PPC manager who settled up it for you) which is structured the right way and optimized by Leadza.",
    "ru": "Увеличивайте охват ваших Публикаций и снижайте стоимость взаимодействия с вашим контентом, автоматически запуская новые рекламные кампании на Продвижение публикаций. Система анализирует и находит самый популярный контент на ваших Бизнес-страницах и подбирает новые \"холодные\" аудитории для таргетинга, устанавливает бюджет и график показа рекламы и автоматически запускает для вас новую рекламную кампанию на Продвижение Публикаций. После создания новой кампании, система отслеживает появление новых постов на вашей странице и присылает советы по добавлению новых групп объявлений с новым контентом в данную рекламную кампанию. А также высылает другие советы по оптимизации: увеличение/уменьшение бюджета, оптимизация настроек пола/возраста и мест показа рекламы. Таким образом, вы можете легко контролировать эффективность ваших постов и получать больше Подписчиков/Лидов по разумной цене, при этом не открывая Менеджер Рекламы и не тратя время на ручные оптимизации."
  },
  "tip_bt": {
    "en": "Leadza automatically grades all of your ad sets and identifies statistically significant performance for each knowing which ad sets have enough statistics to be tested. Ad sets marked with the highest grades are copied to 10-14 new ad sets with different manual bid levels which are going to be tested during the next 7 days. Using data science allows to quickly find max bids that cut your cost per action and boost ROAS. All ad sets inside bid tests are competing with each other. During the test, Leadza shuts off the losers and scales the winners. The system finally finds a winning bid and allows you to drive more performance out of your top performing ad sets. Unlike other bidtesting tools, you do not need to mark ad sets manually in your Ad Manager or deal with complicated dashboards.",
    "ru": "Система автоматически оценивает группы объявлений и определяет те, у которых достаточно статистики для тестирования ручных ставок. Те группы объявлений, которые получили оценку \"А\" ситсема будет тестировать на предмет поиска эффективной ручной ставки, которая позволит получать больше целевых действий, сохраняя при этом эффективную стоимость целевого действия. Из каждой такой группы объявлений система создает 10-14 новых тестовых групп объявлений с различными ручными ставками, которые тестируются в течение 7 дней. В ходе теста группы объявлений соревнуются между собой, система может перерспределять между ними бюджет и выключать неэффективные группы объявлений. В результате теста остаются только те группы объявлений, которые дают стоимость целевого действия ниже, чем в той группе объявлений, которая была скопирована, что позволяет масштабировать рекламную кампанию."
  },
  "tip_narrow_interests": {
    "en": "You can scale a particular campaign on Facebook by testing new ad sets targeted on 50+ uncovered interests and finding top keywords that convert. Leadza helps you find interests you’d normally have to manually search through the Facebook interface to find and finally could find much less. With a click of a button, you can create a new testing ad set so those interests are added straight into it – no more copying and pasting. After your ad has been running, you can get a breakdown of how each interest is performing within that ad set and automatically ask your virtual assistant to narrow your targeting. No more multiple ad sets to try and find out which interest is best for you to target.",
    "ru": "Вы можете масштабировать рекламную кампанию через тестирование новых групп объявлений с настройками на \"холодные\" аудитории по интересам. Система подбирает 50+ новых интересов, которые в ручном режиме бывает найти сложно и затратно по времени. Система запускает на тест новую группу объявлений, 50+ интересов сразу будут добавлены в ваши настройки таргетинга - вам не нужно их копировать и вставлять вручную. После того, как группа объявлений запущена, через 7 дней система пришлет детальную статистику по интересам, выберет самые эффективные и предложить сутить таргетинг до тех интеров, которые бают наименьшую стоимость целевого действия. Вам больше не нужно тестировать интересы вручную, запуская разные группы объявлений и тратя бюджет."
  },
  "tip_narrow_age_gender": {
    "en": "With Leadza Age/gender optimization suggestions you can narrow down your broad Facebook target audience to include those demographic parameters that give your more conversions on average without guessing or any manual analysis. The system grades all the age/gender segments inside your campaign, chooses the “winners” and suggests you to test them by automatically creating new ad sets with narrowed down parameters.",
    "ru": "C помощью данной оптимизации вы можете сужать широкие аудитории до тех демографический параметров (пола и возраста), которые позволят вам получить больше целевых действий по меньшей стоимости. Система оценивает все поло-возрастные сегменты внутри ваших рекламных кампаний, выбирает самые эффективные и автоматически создает новую группу объявлений для теста с суженнными параметрами таргетинга."
  },
  "tip_narrow_placement": {
    "en": "With Leadza Platform/Device/Position optimization suggestions you can easily find best performing placements for your ads. The system grades all the platform/device/position segments inside your campaign, chooses the “winners” and suggests you to test them by automatically creating new ad sets with the combination of your best performing ads/audiences and a particular placement.",
    "ru": "C помощью данной оптимизации вы можете легко находить лучшие места показа рекламы. Система оценивает все сегменты в разрезе платформ, устройств и мест показа, выбирает самые эффективные и автоматически создает новую группу объявлений для теста, комбинируя в ней ваши самые эффектвиные объявления/аудитории и места показа рекламы."
  },
  "help": {
    "en": "Help center",
    "ru": "Нужна помощь"
  },
  "yearly_subscription": {
    "en": "20% off on yearly subscription",
    "ru": "20% скидка на годовой тариф"
  },
  "account": {
    "en": "Account",
    "ru": "Рекламный аккаунт"
  },
  "active": {
    "en": "Active",
    "ru": "Активный"
  },
  "activate": {
    "en": "Activate",
    "ru": "Применить"
  },
  "activate_trial": {
    "en": "you free trial",
    "ru": "бесплатную неделю на любом тарифе"
  },
  "ad_account": {
    "en": "Ad account",
    "ru": "Рекламный аккаунт"
  },
  "ad_campagins": {
    "en": "Ad Campaigns",
    "ru": "Рекламные кампании"
  },
  "ad_set_grading": {
    "en": "Ad set grading",
    "ru": "Рейтинг группы объявлений"
  },
  "add": {
    "en": "Add",
    "ru": "Добавить"
  },
  "add_optimization": {
    "en": "Add optimization",
    "ru": "Создать оптимизацию"
  },
  "narrow_age_gender": {
    "en": "Age/gender optimization",
    "ru": "Оптимизация интересов и социально-демографических параметров целевой аудитории"
  },
  "narrow_interests": {
    "en": "Ads Keyword & Interest suggestions",
    "ru": "Масштабирование рекламных кампаний по ключевым словам и интересам"
  },
  "card_add_nofiy": {
    "en": "Cancel any time. You are only charged after your free trial finishes.",
    "ru": "Отмена подписки в любое время. Система спишет оплату только по факту окончания тестового периода."
  },
  "tip_posts_max_age_months": {
    "en": "Adjust the period for which Leadza takes posts to analyze if you are aware of the relevance of your content (Leadza takes 1 month by default).",
    "ru": "Вы можете скорректировать срок, за который система анализирует эффективность ваших публикаций."
  },
  "after_conneting_leadza_bot_click": {
    "en": "After connecting Leadza bot click",
    "ru": "После подписки"
  },
  "will_charge_you_for": {
    "en": "After you will subscribe we will charge you for",
    "ru": "После оформления подписки, система спишет"
  },
  "all": {
    "en": "All",
    "ru": "Все"
  },
  "allocate_budget": {
    "en": "Allocate budget",
    "ru": "Распределить бюджет"
  },
  "analyze_ad_sets": {
    "en": "Analyze ad sets",
    "ru": "Анализировать группы объявлений"
  },
  "tip_adset_daily_budget": {
    "en": "Assign budget for auto-boosted posts. The minimum daily budget (by default) per each ad set is $5 - this requirement allows the system correctly optimize your Post Engagement campaign. ",
    "ru": "Определите дневной бюджет на каждую группу объявлений, ориентируясь на минимальное значение в $5 (которое позволит системе собрать достаточное количество статистики для дальнейшей опттимизации. "
  },
  "audiences_to_target": {
    "en": "Audiences to target",
    "ru": "Аудитории для таргетинга"
  },
  "bt": {
    "en": "Automated bid testing",
    "ru": "Автоматическое тестирование ставок"
  },
  "pab": {
    "en": "Auto-boost your best Page Content",
    "ru": "Автоматическое продвижение лучшего контента с Бизнес-страниц"
  },
  "back": {
    "en": "Back",
    "ru": "вернитесь"
  },
  "billing": {
    "en": "Billing",
    "ru": "Счета"
  },
  "by": {
    "en": "by",
    "ru": "по"
  },
  "tip_increase_budget": {
    "en": "By adjusting the percent range for which Leadza can increase your daily budget you can control how fast you are going to scale. 20% is max allowed by the system to be sure you continue to get positive results and will not be scaling too fast. Budget Management will have the same setting.",
    "ru": " Изменяя % увеличения бюджета, вы можете контролировать, как быстро вы хотите масштабировать рекламную кампанию. Система автоматически определит самые эффективные группы объявлений, которым добавит бюджет в эффективных пропорциях."
  },
  "coupon_rules": {
    "en": "By applying a discount code you will get % off for the chosen plan. Each code can be used only once. Applying a new code cancels the previous one. ",
    "ru": "Применяя купон, вы получаете скидку на выбранный план. Каждый купон может быть применен только один раз. Использование нового купона отменяет действие предыдущего."
  },
  "enter_code_here": {
    "en": "Enter code here",
    "ru": "Поле для кода"
  },
  "call_to_enter_card": {
    "en": "Enter your payment info to confirm your 7 day free trial",
    "ru": "Добавьте карту, чтобы начать бесплатный 7-дневный триал"
  },
  "campaign": {
    "en": "Campaign",
    "ru": "Рекламная кампания"
  },
  "card_details": {
    "en": "Card details",
    "ru": "Платежная карта"
  },
  "change_of_plan": {
    "en": "Change of plan",
    "ru": "Изменить тариф"
  },
  "card_change_notify": {
    "en": "Change your credit card details here. You will be automatically charged each payment period.",
    "ru": "Здесь вы можете отредактировать платежную информацию. Система автоматически списывает необходимую сумму тарифа в конце расчетного периода."
  },
  "tip_page": {
    "en": "Choose a Business Page you want to promote.",
    "ru": "Выберите Бизнес-страницу для продвижения."
  },
  "choose_account": {
    "en": "Choose ad accounts and campaigns you want to optimize.",
    "ru": "Выберите рекламные аккаунты/кампании, по которым хотите получить советы по оптимизации"
  },
  "tip_account": {
    "en": "Choose an ad account to optimize",
    "ru": "Выберите рекламный аккаунт для оптимизации"
  },
  "tip_audiences_to_target": {
    "en": "Choose audiences to target from suggested by Leadza (new interest-based audiences and Page Fans) and Custom audiences from your Ad Account. ",
    "ru": "Выберите аудитории из подобранных системой (аудитория по интересам + Подписчики страницы и их друзья) и из ваших Индивидуализированных аудиторий в рекламном аккаунте "
  },
  "choose_audience": {
    "en": "Choose audience",
    "ru": "Выбор аудитории"
  },
  "choose_campaigns": {
    "en": "Choose campaigns",
    "ru": "Выбор кампании"
  },
  "tip_campaign": {
    "en": "Choose campaigns to include in a list to optimize",
    "ru": "Выберите список кампаний, чтобы включить в фильтр"
  },
  "choose_plan": {
    "en": "Choose plan",
    "ru": "Выберите"
  },
  "tip_type": {
    "en": "Choose type of your Optimization",
    "ru": "Выберите тип оптимизации"
  },
  "tip_level": {
    "en": "Choosing \"Campaign\" means that the system works with ad sets in each campaign separately and do not allocate budgets between campaigns. Please note that if you set a Campaign budget in your Ad Manager the system cannot optimize it. Account level optimization means that all ad sets will be grouped together and your budget between campaign may vary.",
    "ru": "Уровень"
  },
  "choose_lang": {
    "en": "Choose the language which should be used for this interface",
    "ru": "Выберите язык интерфейса"
  },
  "collection_data ": {
    "en": "Collection data",
    "ru": "Сбор данных"
  },
  "connect_leadza_bot": {
    "en": "Connect Leadza bot",
    "ru": "Подписаться на собщения бота"
  },
  "personal_assisant": {
    "en": "Connect your virtual assistant to get your suggestions in Facebook Messenger.",
    "ru": "Подключите виртуального ассистента, чтобы получить ваш первый совет в чат"
  },
  "tip_delete_all_data": {
    "en": "Click and we will delete the profile and all user data according to our privacy policy and the requirements of the GDPR",
    "ru": "Нажмите и мы удалим профиль и все данные пользователя, согласно нашей политики конфиденциальности и требованиям GDPR"
  },
  "tip_delete_credit_card": {
    "en": "Click to remove the payment card you used to pay for service from the Leadza account",
    "ru": "Нажмите, чтобы удалить использованную вами для оплаты услуг платежную карту из аккаунта Leadza"
  },
  "discount_code": {
    "en": "Discount code",
    "ru": "Примените купон"
  },
  "count_free_days": {
    "en": "Free subscription days:",
    "ru": "Кол-во дней бесплатного использования: "
  },
  "country": {
    "en": "Country",
    "ru": "Страна"
  },
  "first_optimization": {
    "en": "Create your first optimization according to your marketing goals.",
    "ru": "Создайте вашу первую оптимизацию под ваши задачи продвижения"
  },
  "credit_card": {
    "en": "Credit card",
    "ru": "Платёжная карта"
  },
  "current_plan": {
    "en": "Current plan",
    "ru": "Текущий тариф"
  },
  "custom": {
    "en": "Custom",
    "ru": "Настраиваемый"
  },
  "daily_budget_per_each_ad_set": {
    "en": "Daily budget per each ad set",
    "ru": "Дневной бюджет на группу объявлений"
  },
  "days": {
    "en": "Days",
    "ru": "Дни"
  },
  "tip_days": {
    "en": "Decide how many days you want your posts will be promoted depending on your budget and your Business Page content frequency.",
    "ru": "Выберите период для продвижения ваших Публикаций в зависимости от частоты появления публикаций на вашей Бизнес-страницы и рекламного бюджета."
  },
  "tip_number_of_ad_sets": {
    "en": "Decide on how many ad sets you want to test at once (Leadza suggests 3 by default). You can always change this rule when having more budget for running new ad sets.",
    "ru": "Определите, сколько тестовых групп объявлений вы хотите создать."
  },
  "tip_number_of_new_adsets": {
    "en": "Decide on how many ad sets you want to test at once (Leadza suggests 3 by default). You can always change this rule when having more budget for running new ad sets.",
    "ru": "Определите, сколько тестовых групп объявлений вы хотите создать."
  },
  "tip_numberPosts": {
    "en": "Decide on how many posts you want to promote at once (Leadza suggests 3 by default).",
    "ru": " Определите кол-во постов, которые будут продвигаться одновременно."
  },
  "delete_all_data": {
    "en": "Delete all my data",
    "ru": "Стереть все данные"
  },
  "delete_credit_card": {
    "en": "Delete card",
    "ru": "Удалить данные карты"
  },
  "trash": {
    "en": "Delete my optimization",
    "ru": "Удалить оптимизацию"
  },
  "edit": {
    "en": "Edit my optimization",
    "ru": "Изменить оптимизацию"
  },
  "agreement": {
    "en": "I agree Leadza",
    "ru": "Я принимаю"
  },
  "facebook_optimization_goal": {
    "en": "Facebook optimization goal",
    "ru": "Как в Facebook"
  },
  "required_fields": {
    "en": "Fill in the required fields before saving",
    "ru": "Заполните обязательные поля перед сохранием"
  },
  "get_notify": {
    "en": "Get and implement your first suggestion, then enjoy the results on your campaign!",
    "ru": "Получите и внедрите ваш первый совет, который улучшит эффективность вашей рекламы"
  },
  "time_empty": {
    "en": "HH:MM",
    "ru": "ЧЧ:ММ"
  },
  "text_greeting": {
    "en": "I'm happy to start analyzing your campaigns and improving your performance! Please follow these steps:",
    "ru": "Пока я анализирую ваши рекламные аккаунты и кампании, выполните 4 простых шага, чтобы начать:"
  },
  "tip_analyze_ad_sets": {
    "en": "If you have some outdated ad sets in your campaigns simply ask the system to analyze only those which are active.",
    "ru": "Если в ваших рекламных кампаниях присутствую неактуальные (старые) группы объявлений, вы можете попросить систему анализировать только активные."
  },
  "tip_allocate_budget": {
    "en": "If you have specific spend targets for each ad set and don't want any flexibility between them simply choose “No“ for allocating setting so you will only allow the system to increase budgets on good performing ad sets while the other ad sets budget remains the same.",
    "ru": "Чтобы не перераспределять бюджет (а только увеличивать на самые эффективные группы объявлений), выберите “Нет“.Это позволит вам сохранить изначальные значения бюджетов для всех остальных групп объявлений."
  },
  "tip_ad_set_grading": {
    "en": "If you want to have a clear understanding of ad set performance turn on ad set grading so you will see the grades from A to D. Ad sets marked with A and B have enough statistics to be tested, A means the highest performance compared with other ad sets.",
    "ru": "Включение Рейтинга групп объявлений на основе их эффективности позволит вам в Рекламном кабинете отслеживать Рейтинг каждой группы (A, B, C, D), который система автоматически будет добавлять в названия ваших групп объявлений. Рейтинги A, B означают, что группы объявлений имеют достаточно статистики и могут участвовать в тестировании.  "
  },
  "increase_budget": {
    "en": "Increase daily budget by",
    "ru": "Увеличить дневной бюджет на"
  },
  "language": {
    "en": "Language",
    "ru": "Язык"
  },
  "level": {
    "en": "Level",
    "ru": "Уровень"
  },
  "login": {
    "en": "Login",
    "ru": "Войти"
  },
  "logout": {
    "en": "Logout",
    "ru": "Выйти"
  },
  "name": {
    "en": "Name",
    "ru": "Название"
  },
  "new_prospecting_audiences": {
    "en": "New Prospecting Audiences",
    "ru": "Новые аудитории для таргетинга"
  },
  "no": {
    "en": "No",
    "ru": "Нет"
  },
  "number_of_ad_campagins": {
    "en": "Number of ad campaings",
    "ru": "Кол-во рекламных кампаний"
  },
  "number_of_ad_sets": {
    "en": "Number of ad sets",
    "ru": "Кол-во групп объявлений."
  },
  "number_of_new_adsets": {
    "en": "Number of new adsets",
    "ru": "Кол-во новых групп объявлений"
  },
  "number_of_posts_promoted_at_once": {
    "en": "Number of posts promoted at once",
    "ru": "Кол-во публикаций, продвигаемых одновременно"
  },
  "optimization": {
    "en": "Optimization",
    "ru": "Оптимизация"
  },
  "optimization_goal": {
    "en": "Optimization goal",
    "ru": "Цель оптимизации"
  },
  "page": {
    "en": "Page",
    "ru": "Страница"
  },
  "page_fans_and_their_friends": {
    "en": "Page fans and their friends",
    "ru": "Подписчики страницы и их друзья"
  },
  "no_page": {
    "en": "Page not found",
    "ru": "Страница не найдена"
  },
  "plans": {
    "en": "Plans",
    "ru": "Тарифы"
  },
  "narrow_placement": {
    "en": "Platform/device/position",
    "ru": "Оптимизация по плейсментам/местам размещения рекламы"
  },
  "any_error": {
    "en": "Please contact our tech support using the Intercom widget (blue circle in the bottom-right of your screen).",
    "ru": "Пожалуйста, свяжитесь с нашим специалистом поддержки через Интерком (голубая иконка в правом нижнем углу экрана)"
  },
  "budget_allocation": {
    "en": "Predictive budget allocation",
    "ru": "Перераспределение рекламного бюджета"
  },
  "privacy_policy": {
    "en": "Privacy Policy",
    "ru": " политику конфиденциальности"
  },
  "tip_name": {
    "en": "Put a name of your Optimization",
    "ru": "Введите имя вашей оптимизации"
  },
  "remove_account": {
    "en": "Remove account",
    "ru": "Удалить профиль"
  },
  "lal": {
    "en": "Scaling campaigns with lookalike audiences",
    "ru": "Масштабирование рекламных кампаний на новые целевые аудитории"
  },
  "search_audience": {
    "en": "Search Audience",
    "ru": "Поиск аудитории"
  },
  "search_campaigns": {
    "en": "Search campaigns",
    "ru": "Поиск кампаний"
  },
  "select_all": {
    "en": "Select all",
    "ru": "Выбрать всё"
  },
  "schedule_hour": {
    "en": "Select the time of the day when you would like to get notifications",
    "ru": "Выберите удобное время в которое вы бы хотели получать уведомления"
  },
  "select_plan": {
    "en": "Select plan",
    "ru": "Выбрать тариф"
  },
  "send_issue": {
    "en": "Send issue",
    "ru": "Отправить запрос"
  },
  "recomend": {
    "en": "Send my suggestion",
    "ru": "Отправить совет"
  },
  "stamp_notify": {
    "en": "Send this error to our specialist. We will be happy to help you ASAP.",
    "ru": "Отправьте данную ошибку нашему специалисту. Мы будем рады помочь как можно скорее."
  },
  "Settings": {
    "en": "Settings",
    "ru": "Настройки"
  },
  "settings": {
    "en": "Settings",
    "ru": "Настройки"
  },
  "sign_in_to_continue": {
    "en": "Sign in to continue",
    "ru": "Войти"
  },
  "sign_in_with_facebook": {
    "en": "Sign in with Facebook",
    "ru": "Авторизация через Facebook"
  },
  "spend": {
    "en": "Spend",
    "ru": "Расход на рекламу"
  },
  "suitable_plan": {
    "en": "before it ends.",
    "ru": "подходящий тариф."
  },
  "support": {
    "en": "Support",
    "ru": "Тех. поддержка"
  },
  "subscription_schedule_hour": {
    "en": "Subscription time",
    "ru": "Время оповещений"
  },
  "sync_accounts": {
    "en": "Sync Accounts",
    "ru": "Синхронизировать Аккаунты"
  },
  "posts_max_age_months": {
    "en": "Take posts for the last",
    "ru": "Анализировать публикации за последний"
  },
  "target_country": {
    "en": "Target country",
    "ru": "Страна для таргетинга"
  },
  "terms_of_use": {
    "en": "Terms of Use",
    "ru": "условия использования"
  },
  "diffTimeZone": {
    "en": "The time zone of the browser is different from the time zone in your Account",
    "ru": "Время в браузере отличается от времени в настройках"
  },
  "plan_error": {
    "en": "There was an error during your plan change.",
    "ru": "Произошла ошибка при попытке списания средств за очередной платежный период."
  },
  "tip_campaigns": {
    "en": "This is campaigns of optimization",
    "ru": "This is campaigns of optimization"
  },
  "tip_tipconfig_type": {
    "en": "This is tip of optimization",
    "ru": "This is tip of optimization"
  },
  "time_zone": {
    "en": "Time Zone",
    "ru": "Часовой пояс"
  },
  "time_zone": {
    "en": "Time Zone",
    "ru": "Часовой пояс"
  },
  "tip_current_plan": {
    "en": "Free use period is available until ",
    "ru": "Бесплатный период использования доступен до "
  },
  "total_charge_info": {
    "en": "Total charge info",
    "ru": "Платежи"
  },
  "turn_off_parent": {
    "en": "Turn off parent",
    "ru": "Выключить родительскую ГО"
  },
  "activate_opt": {
    "en": "Turn on/off my optimization",
    "ru": "Включить / Выключить"
  },
  "type": {
    "en": "Type",
    "ru": "Тип"
  },
  "card_error": {
    "en": "Unfortunately, the card you have provided cannot be added to your account.",
    "ru": "К сожалению, ваша карта не может быть подключена к аккаунту в системе."
  },
  "unsaved_changes_has_applied": {
    "en": "Unsaved changes has applied",
    "ru": "Применены несохраненные изменения"
  },
  "update": {
    "en": "Update",
    "ru": "Обновить"
  },
  "watch_the_tutorial_video": {
    "en": "Watch the tutorial video",
    "ru": "Посмотрите обучающее видео"
  },
  "year": {
    "en": "year",
    "ru": "года"
  },
  "yes": {
    "en": "Yes",
    "ru": "Да"
  },
  "tip_optimization_goal": {
    "en": "You can change your Optimization goal from Conversions (for example) to any other event (even ROAS) depending on your final marketing goal. This setting will remain the same with Budget Management and you will be able to focus on the most important marketing goals. Please note, that choosing the same Optimization goal for different campaigns will be more complicated - they still recommended to be grouped by types, for example: Cold campaigns, Remarketing campaign, Post Engagement campaigns. By choosing all cold campaigns you will be able to group them together and allocate budget between them based on the Key Metric. Let’s say you have Campaign 1 (Traffic), Campaign 2 (Conversions, all ad sets are optimized on Add To Cards), Campaign 3 (Conversions, all ad sets are optimized on Purchases). You can choose Purchases as your Key Metric and Allocate budget between Campaign 1,2,3 based on it.",
    "ru": "Поменяйте цель оптимизации. Например, измените “Конверсии“ на “ROAS “ в зависимости от вашей воронки продаж и конечной цели."
  },
  "tip_optimization_goal_name": {
    "en": "You can change your Optimization goal from Conversions (for example) to any other event (even ROAS) depending on your final marketing goal.",
    "ru": "Вы можете изменить цель оптимизации со стандартной цели (на которую оптимизирована кампания в Facebook) на любую согласно вашей воронке продаж (например, с Конверсий на Выручку)."
  },
  "tip_country": {
    "en": "You can choose a country to make sure you target the right audience and do not let the system to take into account other countries from your Ad Account.",
    "ru": "Выберите страну, на которую хотите таргетировать ваши объявления, чтобы система проанализировала Аудитории вашего рекламного аккаунта только по этой стране."
  },
  "tip_turn_off_parent": {
    "en": "You can let the system turn off parent ad set when your testing ad set with narrowed down parameters is running.",
    "ru": "Вы можете оставить в рекламной кампании и родительскую группу объявлений и новую для теста, либо, по желанию, выключить родительскую ГО при создании новой группы объявлений с суженными параметрами."
  },
  "you_have_a_discount_of": {
    "en": "You have a discount of",
    "ru": "У вас есть скидка в размере"
  },
  "one-time_discount": {
    "en": "You have a one-time discount of",
    "ru": "У вас есть одноразовая скидка в размере"
  },
  "persistent_discount": {
    "en": "You have a persistent discount of",
    "ru": "У вас есть постоянная скидка в размере"
  },
  "you_will_be_charged_for": {
    "en": "You will be charged for",
    "ru": "Система спишет"
  },
  "you_will_be_credited_with": {
    "en": "You will be credited with",
    "ru": "Вам будет доначислено"
  },
  "coupon_error": {
    "en": "Your code is invalid. Please try to use another code. ",
    "ru": "Вы ввели неверный код. Пожалуйста, попробуйте еще раз."
  },
  "Plans": {
    "en": "Your monthly ad spend",
    "ru": "Ваш ежемесячный расход на рекламу"
  },
  "monthly_ad_spend": {
    "en": "Your monthly ad spend",

    "ru": "Ваш ежемесячный расход на рекламу"
  },
  "add_you": {
    "en": "add_you",
    "ru": "Добавить вас"
  },
  "and": {
    "en": "and",
    "ru": "и"
  },
  "at_the_end_of_the_each_subscription": {
    "en": "at the end of the each subscription",
    "ru": "в конце каждого"
  },
  "cancel": {
    "en": "cancel",
    "ru": "Отменить"
  },
  "close": {
    "en": "close",
    "ru": "закрыть"
  },
  "for_the_unspent_time.": {
    "en": "for the unspent time.",
    "ru": "за неиспользованное время подписки."
  },
  "trial_finish": {
    "en": "after your free trial finishes.",
    "ru": " после окончания пробного периода"
  },
  "month": {
    "en": "month",
    "ru": "месяца"
  },
  "off_all_your_next_purchases": {
    "en": "off all your next purchases",
    "ru": "все ваши следующие покупки"
  },
  "next_purchases": {
    "en": "off all your next purchases for the following",
    "ru": "со всех ваших будущих платежей в течение"
  },
  "off_your_next_purchase": {
    "en": "off your next purchase",
    "ru": "вашей следующей покупки"
  },
  "Total": {
    "en": "pro plan on plans",
    "ru": "pro plan on plans"
  },
  "save": {
    "en": "save",
    "ru": "Сохранить"
  },
  "to_main": {
    "en": "to main page",
    "ru": "Перейти на главную страницу"
  },
  "used_in": {
    "en": "Used in",
    "ru": "Уже есть в"
  },
  "years_(+20%_discount)": {
    "en": "years(+20% discount)",
    "ru": "год (+20% скидка)"
  },
  "1_week_trial": {
    "en": "1 week free trial",
    "ru": "1 неделя бесплатно на любом тарифе"
  },
  "postsMaxAgeMonths": {
    "en": [
      {
        "label": "1 month",
        "value": 1
      },
      {
        "label": "2 months",
        "value": 2
      },
      {
        "label": "3 months",
        "value": 3
      },
      {
        "label": "4 months",
        "value": 4
      },
      {
        "label": "5 months",
        "value": 5
      },
      {
        "label": "6 months",
        "value": 6
      }
    ],
    "ru": [
      {
        "label": "1 месяц",
        "value": 1
      },
      {
        "label": "2 месяца",
        "value": 2
      },
      {
        "label": "3 месяца",
        "value": 3
      },
      {
        "label": "4 месяца",
        "value": 4
      },
      {
        "label": "5 месяцев",
        "value": 5
      },
      {
        "label": "6 месяцев",
        "value": 6
      }
    ]
  },
  "used_in": {
    "en": "Used in",
    "ru": "Уже используется в"
  },
  "erase_all_you_data": {
    "en": "Erase all you data?",
    "ru": "Удалить все ваши данные?"
  }
}
